%YAML 1.1
%TAG !u! tag:unity3d.com,2011:
--- !u!1045 &1
EditorBuildSettings:
  m_ObjectHideFlags: 0
  serializedVersion: 2
  m_Scenes:
  - enabled: 1
    path: Assets/Scenes/Game.unity
    guid: c4f4e94e92dec2147957433d31ce3af9
  - enabled: 1
    path: Assets/Scenes/Game2.unity
    guid: 885d98c5a3c23ea45b22664721604c12
  - enabled: 1
    path: Assets/Scenes/Victory.unity
    guid: ee3d41e8be91f0a49b431f249b3a89d9
  - enabled: 1
    path: Assets/Scenes/Dead.unity
    guid: bf243090a70ee374d94c0d819ab33165
  m_configObjects:
    com.unity.input.settings: {fileID: 11400000, guid: 73bebac8b48ffc64faf1beeae4af6269,
      type: 2}
